module gitlab.com/hacklunch/ntsclient

require (
	github.com/BurntSushi/toml v0.3.1
	github.com/alecthomas/kingpin v2.2.6+incompatible
	github.com/alecthomas/template v0.0.0-20190718012654-fb15b899a751 // indirect
	github.com/alecthomas/units v0.0.0-20190924025748-f65c72e2690d // indirect
	gitlab.com/hacklunch/ntp v0.2.1-0.20200714090752-d286380a85fb
	gitlab.com/hacklunch/ntske v0.0.0-20200720174649-056ebf14a421
	golang.org/x/net v0.0.0-20200320220750-118fecf932d8 // indirect
	golang.org/x/sys v0.0.0-20200321134203-328b4cd54aae // indirect
)

go 1.11
